…
## Mazda RX4 Wag     3.90 2.875 17.02  0
## Datsun 710        3.85 2.320 18.61  1
## Hornet 4 Drive    3.08 3.215 19.44  1
## Hornet Sportabout 3.15 3.440 17.02  0
## Valiant           2.76 3.460 20.22  1
##                   am gear carb
## Mazda RX4          1    4    4
## Mazda RX4 Wag      1    4    4
## Datsun 710         1    4    1
## Hornet 4 Drive     0    3    1
## Hornet Sportabout  0    3    2
## Valiant            0    3    1
## complete(data, ..., fill = list())
complete(mtcars, cyl, gear, carb)
## # A tibble: 74 × 11
##      cyl  gear  carb   mpg  disp    hp
##    <dbl> <dbl> <dbl> <dbl> <dbl> <dbl>
##  1     4     3     1  21.5 120.     97
##  2     4     3     2  NA    NA      NA
##  3     4     3     3  NA    NA      NA
##  4     4     3     4  NA    NA      NA
##  5     4     3     6  NA    NA      NA
##  6     4     3     8  NA    NA      NA
##  7     4     4     1  22.8 108      93
##  8     4     4     1  32.4  78.7    66
##  9     4     4     1  33.9  71.1    65
## 10     4     4     1  27.3  79      66
## # … with 64 more rows, and 5 more
## #   variables: drat <dbl>, wt <dbl>,
## #   qsec <dbl>, vs <dbl>, am <dbl>
## expand(data, ...)
expand(mtcars, cyl, gear, carb)
## # A tibble: 54 × 3
##      cyl  gear  carb
##    <dbl> <dbl> <dbl>
##  1     4     3     1
##  2     4     3     2
##  3     4     3     3
##  4     4     3     4
##  5     4     3     6
##  6     4     3     8
##  7     4     4     1
##  8     4     4     2
##  9     4     4     3
## 10     4     4     4
## # … with 44 more rows
```
…
